(module DG301-5.0-02P (layer F.Cu) (tedit 5D95A177)
  (fp_text reference REF** (at 0 -2.032) (layer F.SilkS)
    (effects (font (size 1 1) (thickness 0.15)))
  )
  (fp_text value DG301-5.0-02P (at 0 3.302) (layer F.Fab)
    (effects (font (size 1 1) (thickness 0.15)))
  )
  (fp_line (start 1.5 -0.492) (end 3.5 1.508) (layer F.SilkS) (width 0.15))
  (fp_line (start -3.5 -0.492) (end -1.5 1.508) (layer F.SilkS) (width 0.15))
  (fp_circle (center 2.5 0) (end 4.302776 0) (layer F.SilkS) (width 0.1))
  (fp_circle (center -2.5 0) (end -0.697224 0) (layer F.SilkS) (width 0.1))
  (fp_line (start 1.5 -2.992) (end 1.5 2) (layer F.SilkS) (width 0.15))
  (fp_line (start 1.5 2) (end 3.5 2) (layer F.SilkS) (width 0.15))
  (fp_line (start 3.5 2) (end 3.5 -2.992) (layer F.SilkS) (width 0.15))
  (fp_line (start -3.5 -2.992) (end -3.5 2) (layer F.SilkS) (width 0.15))
  (fp_line (start -3.5 2) (end -1.5 2) (layer F.SilkS) (width 0.15))
  (fp_line (start -1.5 2) (end -1.5 -2.992) (layer F.SilkS) (width 0.15))
  (fp_line (start -5 -1.592) (end -5.5 -1.592) (layer F.SilkS) (width 0.15))
  (fp_line (start -5.5 -1.592) (end -5.5 -0.692) (layer F.SilkS) (width 0.15))
  (fp_line (start -5.5 -0.692) (end -5 -0.692) (layer F.SilkS) (width 0.15))
  (fp_line (start 5 -1.592) (end 4.5 -1.592) (layer F.SilkS) (width 0.15))
  (fp_line (start 4.5 -1.592) (end 4.5 -0.692) (layer F.SilkS) (width 0.15))
  (fp_line (start 4.5 -0.692) (end 5 -0.692) (layer F.SilkS) (width 0.15))
  (fp_line (start -5 2.908) (end -4.5 2.908) (layer F.SilkS) (width 0.15))
  (fp_line (start -4.5 2.908) (end -4.5 3.808) (layer F.SilkS) (width 0.15))
  (fp_line (start -4.5 3.808) (end -5 3.808) (layer F.SilkS) (width 0.15))
  (fp_line (start 5 2.908) (end 5.5 2.908) (layer F.SilkS) (width 0.15))
  (fp_line (start 5.5 2.908) (end 5.5 3.808) (layer F.SilkS) (width 0.15))
  (fp_line (start 5.5 3.808) (end 5 3.808) (layer F.SilkS) (width 0.15))
  (fp_line (start -5 -3.042) (end 5 -3.042) (layer F.SilkS) (width 0.15))
  (fp_line (start 5 -3.042) (end 5 4.558) (layer F.SilkS) (width 0.15))
  (fp_line (start 5 4.558) (end -5 4.558) (layer F.SilkS) (width 0.15))
  (fp_line (start -5 4.558) (end -5 -3.042) (layer F.SilkS) (width 0.15))
  (pad 1 thru_hole oval (at -2.413 0) (size 2 4) (drill 0.95) (layers *.Cu *.Mask))
  (pad 2 thru_hole oval (at 2.54 0) (size 2 4) (drill 0.95) (layers *.Cu *.Mask))
  (model ${KIEXTLIB}/shapes/DG301-5.0-02P.wrl
    (at (xyz 0 0 0))
    (scale (xyz 0.3937 0.3937 0.3937))
    (rotate (xyz -90 0 90))
  )
)
